{
  "iisSettings": {
    "windowsAuthentication": false,
    "anonymousAuthentication": true,
    "iisExpress": {
      "applicationUrl": "http://localhost:10207/",
      "sslPort": 0
    }
  },
  "profiles": {
    "kuma": {
      "commandName": "Project",
      "launchUrl": "api/values",
      "applicationUrl": "http://localhost:10208/",
      "environmentVariables": {
        "ASPNETCORE_ENVIRONMENT": "Development"
      }
    },
    "IIS Express": {
      "commandName": "IISExpress",
      "launchUrl": "swagger",
      "environmentVariables": {
        "ASPNETCORE_ENVIRONMENT": "Local"
      }
    }
  }
}